simulation/qsim/LogicalStep_Lab4.msim.vcd
$comment
	File created using the following command:
		vcd file LogicalStep_Lab4.msim.vcd -direction
$end
$date
	Mon Jul 15 18:51:37 2024
$end
$version
	ModelSim Version 10.5b
$end
$timescale
	1ps
$end

$scope module LogicalStep_Lab4_top_vlg_vec_tst $end
$var reg 1 ! clkin_50 $end
$var reg 4 " pb_n [3:0] $end
$var reg 1 # rst_n $end
$var reg 8 $ sw [7:0] $end
$var wire 1 % leds [7] $end
$var wire 1 & leds [6] $end
$var wire 1 ' leds [5] $end
$var wire 1 ( leds [4] $end
$var wire 1 ) leds [3] $end
$var wire 1 * leds [2] $end
$var wire 1 + leds [1] $end
$var wire 1 , leds [0] $end
$var wire 1 - seg7_char1 $end
$var wire 1 . seg7_char2 $end
$var wire 1 / seg7_data [6] $end
$var wire 1 0 seg7_data [5] $end
$var wire 1 1 seg7_data [4] $end
$var wire 1 2 seg7_data [3] $end
$var wire 1 3 seg7_data [2] $end
$var wire 1 4 seg7_data [1] $end
$var wire 1 5 seg7_data [0] $end
$var wire 1 6 simulation_blink_sig $end
$var wire 1 7 simulation_EW_amber $end
$var wire 1 8 simulation_EW_green $end
$var wire 1 9 simulation_EW_red $end
$var wire 1 : simulation_NS_amber $end
$var wire 1 ; simulation_NS_green $end
$var wire 1 < simulation_NS_red $end
$var wire 1 = simulation_sm_clken $end

$scope module i1 $end
$var wire 1 > gnd $end
$var wire 1 ? vcc $end
$var wire 1 @ unknown $end
$var tri1 1 A devclrn $end
$var tri1 1 B devpor $end
$var tri1 1 C devoe $end
$var wire 1 D pb_n[2]~input_o $end
$var wire 1 E pb_n[3]~input_o $end
$var wire 1 F sw[0]~input_o $end
$var wire 1 G sw[1]~input_o $end
$var wire 1 H sw[2]~input_o $end
$var wire 1 I sw[3]~input_o $end
$var wire 1 J sw[4]~input_o $end
$var wire 1 K sw[5]~input_o $end
$var wire 1 L sw[6]~input_o $end
$var wire 1 M sw[7]~input_o $end
$var wire 1 N seg7_data[6]~output_o $end
$var wire 1 O leds[0]~output_o $end
$var wire 1 P leds[1]~output_o $end
$var wire 1 Q leds[2]~output_o $end
$var wire 1 R leds[3]~output_o $end
$var wire 1 S leds[4]~output_o $end
$var wire 1 T leds[5]~output_o $end
$var wire 1 U leds[6]~output_o $end
$var wire 1 V leds[7]~output_o $end
$var wire 1 W simulation_sm_clken~output_o $end
$var wire 1 X simulation_blink_sig~output_o $end
$var wire 1 Y simulation_NS_green~output_o $end
$var wire 1 Z simulation_NS_amber~output_o $end
$var wire 1 [ simulation_NS_red~output_o $end
$var wire 1 \ simulation_EW_green~output_o $end
$var wire 1 ] simulation_EW_amber~output_o $end
$var wire 1 ^ simulation_EW_red~output_o $end
$var wire 1 _ seg7_data[0]~output_o $end
$var wire 1 ` seg7_data[1]~output_o $end
$var wire 1 a seg7_data[2]~output_o $end
$var wire 1 b seg7_data[3]~output_o $end
$var wire 1 c seg7_data[4]~output_o $end
$var wire 1 d seg7_data[5]~output_o $end
$var wire 1 e seg7_char1~output_o $end
$var wire 1 f seg7_char2~output_o $end
$var wire 1 g clkin_50~input_o $end
$var wire 1 h clock|clk_divider:counter[0]~1_combout $end
$var wire 1 i rst_n~input_o $end
$var wire 1 j filter|rst_n_filtered~0_combout $end
$var wire 1 k syncRST|sreg~0_combout $end
$var wire 1 l clock|clk_divider:counter[0]~q $end
$var wire 1 m clock|clk_divider:counter[0]~2 $end
$var wire 1 n clock|clk_divider:counter[1]~1_combout $end
$var wire 1 o clock|clk_divider:counter[1]~q $end
$var wire 1 p clock|clk_divider:counter[1]~2 $end
$var wire 1 q clock|clk_divider:counter[2]~1_combout $end
$var wire 1 r clock|clk_divider:counter[2]~q $end
$var wire 1 s clock|clk_divider:counter[2]~2 $end
$var wire 1 t clock|clk_divider:counter[3]~1_combout $end
$var wire 1 u clock|clk_divider:counter[3]~q $end
$var wire 1 v clock|clk_divider:counter[3]~2 $end
$var wire 1 w clock|clk_divider:counter[4]~1_combout $end
$var wire 1 x clock|clk_divider:counter[4]~q $end
$var wire 1 y clock|clk_reg_extend~0_combout $end
$var wire 1 z clock|clk_reg_extend~1_combout $end
$var wire 1 { stateMCHN|current_state~37_combout $end
$var wire 1 | clock|sm_clken~combout $end
$var wire 1 } pb_n[0]~input_o $end
$var wire 1 ~ filter|pb_n_filtered[0]~0_combout $end
$var wire 1 !! sycnNS|sreg~0_combout $end
$var wire 1 "! holdNS|sreg~0_combout $end
$var wire 1 #! holdNS|sreg~q $end
$var wire 1 $! holdNS|dout~q $end
$var wire 1 %! pb_n[1]~input_o $end
$var wire 1 &! filter|pb_n_filtered[1]~1_combout $end
$var wire 1 '! sycnEW|sreg~0_combout $end
$var wire 1 (! holdEW|sreg~0_combout $end
$var wire 1 )! holdEW|sreg~q $end
$var wire 1 *! holdEW|dout~q $end
$var wire 1 +! stateMCHN|current_state~36_combout $end
$var wire 1 ,! stateMCHN|current_state~57_combout $end
$var wire 1 -! stateMCHN|current_state.s15~q $end
$var wire 1 .! stateMCHN|current_state~51_combout $end
$var wire 1 /! stateMCHN|current_state.s0~q $end
$var wire 1 0! stateMCHN|current_state~53_combout $end
$var wire 1 1! stateMCHN|current_state.s1~q $end
$var wire 1 2! stateMCHN|current_state~38_combout $end
$var wire 1 3! stateMCHN|current_state.s2~q $end
$var wire 1 4! stateMCHN|current_state~39_combout $end
$var wire 1 5! stateMCHN|current_state.s3~q $end
$var wire 1 6! stateMCHN|current_state~34_combout $end
$var wire 1 7! stateMCHN|current_state.s4~q $end
$var wire 1 8! stateMCHN|current_state~35_combout $end
$var wire 1 9! stateMCHN|current_state.s5~q $end
$var wire 1 :! stateMCHN|current_state~45_combout $end
$var wire 1 ;! stateMCHN|current_state~46_combout $end
$var wire 1 <! stateMCHN|current_state~47_combout $end
$var wire 1 =! stateMCHN|current_state.s6~q $end
$var wire 1 >! stateMCHN|current_state~56_combout $end
$var wire 1 ?! stateMCHN|current_state.s7~q $end
$var wire 1 @! stateMCHN|current_state~52_combout $end
$var wire 1 A! stateMCHN|current_state.s8~q $end
$var wire 1 B! stateMCHN|current_state~54_combout $end
$var wire 1 C! stateMCHN|current_state~55_combout $end
$var wire 1 D! stateMCHN|current_state.s9~q $end
$var wire 1 E! stateMCHN|current_state~42_combout $end
$var wire 1 F! stateMCHN|current_state~43_combout $end
$var wire 1 G! stateMCHN|current_state.s10~q $end
$var wire 1 H! stateMCHN|current_state~44_combout $end
$var wire 1 I! stateMCHN|current_state.s11~q $end
$var wire 1 J! stateMCHN|current_state~40_combout $end
$var wire 1 K! stateMCHN|current_state.s12~q $end
$var wire 1 L! stateMCHN|current_state~41_combout $end
$var wire 1 M! stateMCHN|current_state.s13~q $end
$var wire 1 N! stateMCHN|current_state~48_combout $end
$var wire 1 O! stateMCHN|current_state~49_combout $end
$var wire 1 P! stateMCHN|current_state~50_combout $end
$var wire 1 Q! stateMCHN|current_state.s14~q $end
$var wire 1 R! segMUX|clk_proc:COUNT[0]~0_combout $end
$var wire 1 S! segMUX|clk_proc:COUNT[0]~q $end
$var wire 1 T! segMUX|clk_proc:COUNT[1]~1_combout $end
$var wire 1 U! segMUX|clk_proc:COUNT[1]~q $end
$var wire 1 V! segMUX|clk_proc:COUNT[1]~2 $end
$var wire 1 W! segMUX|clk_proc:COUNT[2]~1_combout $end
$var wire 1 X! segMUX|clk_proc:COUNT[2]~q $end
$var wire 1 Y! segMUX|clk_proc:COUNT[2]~2 $end
$var wire 1 Z! segMUX|clk_proc:COUNT[3]~1_combout $end
$var wire 1 [! segMUX|clk_proc:COUNT[3]~q $end
$var wire 1 \! segMUX|clk_proc:COUNT[3]~2 $end
$var wire 1 ]! segMUX|clk_proc:COUNT[4]~1_combout $end
$var wire 1 ^! segMUX|clk_proc:COUNT[4]~q $end
$var wire 1 _! segMUX|clk_proc:COUNT[4]~2 $end
$var wire 1 `! segMUX|clk_proc:COUNT[5]~1_combout $end
$var wire 1 a! segMUX|clk_proc:COUNT[5]~q $end
$var wire 1 b! segMUX|clk_proc:COUNT[5]~2 $end
$var wire 1 c! segMUX|clk_proc:COUNT[6]~1_combout $end
$var wire 1 d! segMUX|clk_proc:COUNT[6]~q $end
$var wire 1 e! segMUX|clk_proc:COUNT[6]~2 $end
$var wire 1 f! segMUX|clk_proc:COUNT[7]~1_combout $end
$var wire 1 g! segMUX|clk_proc:COUNT[7]~q $end
$var wire 1 h! segMUX|clk_proc:COUNT[7]~2 $end
$var wire 1 i! segMUX|clk_proc:COUNT[8]~1_combout $end
$var wire 1 j! segMUX|clk_proc:COUNT[8]~q $end
$var wire 1 k! segMUX|clk_proc:COUNT[8]~2 $end
$var wire 1 l! segMUX|clk_proc:COUNT[9]~1_combout $end
$var wire 1 m! segMUX|clk_proc:COUNT[9]~q $end
$var wire 1 n! segMUX|clk_proc:COUNT[9]~2 $end
$var wire 1 o! segMUX|clk_proc:COUNT[10]~1_combout $end
$var wire 1 p! segMUX|clk_proc:COUNT[10]~q $end
$var wire 1 q! stateMCHN|NS_amber~0_combout $end
$var wire 1 r! segMUX|DOUT_TEMP[6]~0_combout $end
$var wire 1 s! stateMCHN|WideOr2~0_combout $end
$var wire 1 t! stateMCHN|WideOr3~0_combout $end
$var wire 1 u! stateMCHN|WideOr9~0_combout $end
$var wire 1 v! stateMCHN|WideOr7~0_combout $end
$var wire 1 w! stateMCHN|WideOr9~combout $end
$var wire 1 x! stateMCHN|WideOr8~0_combout $end
$var wire 1 y! stateMCHN|WideOr8~1_combout $end
$var wire 1 z! stateMCHN|WideOr8~combout $end
$var wire 1 {! stateMCHN|WideOr7~1_combout $end
$var wire 1 |! stateMCHN|WideOr7~combout $end
$var wire 1 }! stateMCHN|WideOr5~combout $end
$var wire 1 ~! clock|blink_sig~0_combout $end
$var wire 1 !" clock|blink_sig~q $end
$var wire 1 "" stateMCHN|Selector2~0_combout $end
$var wire 1 #" stateMCHN|Selector3~0_combout $end
$var wire 1 $" stateMCHN|EW_amber~combout $end
$var wire 1 %" segMUX|DOUT[0]~0_combout $end
$var wire 1 &" segMUX|DOUT[3]~1_combout $end
$var wire 1 '" sycnNS|sreg [1] $end
$var wire 1 (" sycnNS|sreg [0] $end
$var wire 1 )" syncRST|sreg [1] $end
$var wire 1 *" syncRST|sreg [0] $end
$var wire 1 +" sycnEW|sreg [1] $end
$var wire 1 ," sycnEW|sreg [0] $end
$var wire 1 -" filter|sreg4 [3] $end
$var wire 1 ." filter|sreg4 [2] $end
$var wire 1 /" filter|sreg4 [1] $end
$var wire 1 0" filter|sreg4 [0] $end
$var wire 1 1" clock|clk_reg_extend [1] $end
$var wire 1 2" clock|clk_reg_extend [0] $end
$var wire 1 3" filter|sreg0 [3] $end
$var wire 1 4" filter|sreg0 [2] $end
$var wire 1 5" filter|sreg0 [1] $end
$var wire 1 6" filter|sreg0 [0] $end
$var wire 1 7" filter|sreg1 [3] $end
$var wire 1 8" filter|sreg1 [2] $end
$var wire 1 9" filter|sreg1 [1] $end
$var wire 1 :" filter|sreg1 [0] $end
$upscope $end
$upscope $end
$enddefinitions $end
#0
$dumpvars
0!
b1111 "
0#
bx $
0,
0+
0*
0)
0(
0'
0&
0%
1-
0.
15
04
03
02
01
00
0/
06
07
08
19
0:
0;
0<
0=
0>
1?
x@
1A
1B
1C
1D
1E
xF
xG
xH
xI
xJ
xK
xL
xM
0N
0O
0P
0Q
0R
0S
0T
0U
0V
0W
0X
0Y
0Z
0[
0\
0]
1^
1_
0`
0a
0b
0c
0d
1e
0f
0g
1h
0i
1j
0k
0l
0m
0n
0o
1p
0q
0r
0s
0t
0u
1v
0w
0x
0y
0z
1{
0|
1}
1~
0!!
0"!
0#!
0$!
1%!
1&!
0'!
0(!
0)!
0*!
0+!
0,!
0-!
0.!
0/!
00!
01!
02!
03!
04!
05!
06!
07!
08!
09!
0:!
0;!
0<!
0=!
0>!
0?!
0@!
0A!
0B!
0C!
0D!
0E!
0F!
0G!
0H!
0I!
0J!
0K!
0L!
0M!
0N!
0O!
0P!
0Q!
1R!
0S!
0T!
0U!
0V!
0W!
0X!
1Y!
0Z!
0[!
0\!
0]!
0^!
1_!
0`!
0a!
0b!
0c!
0d!
1e!
0f!
0g!
0h!
0i!
0j!
1k!
0l!
0m!
0n!
0o!
0p!
1q!
0r!
1s!
0t!
0u!
0v!
1w!
1x!
0y!
1z!
0{!
1|!
1}!
0~!
0!"
0""
0#"
0$"
1%"
0&"
0("
0'"
0*"
0)"
0,"
0+"
00"
0/"
0."
0-"
02"
01"
06"
05"
04"
03"
0:"
09"
08"
07"
$end
#20000
1!
1g
1S!
1,"
1("
1l
1*"
1:"
16"
1m
1T!
0R!
1'!
1!!
0h
1k
1n
#40000
0!
0g
#60000
1!
1g
1U!
0S!
1+"
1'"
1o
0l
1)"
19"
15"
0p
0m
0{
1R!
0n
1h
0'!
0!!
0k
0&!
0~
1p
1q
1n
0q
#80000
0!
0g
#100000
1!
1g
1S!
0+"
0,"
0'"
0("
0o
0)"
0*"
18"
14"
1V!
1{
0T!
0R!
0n
1W!
#120000
0!
0g
#140000
1!
1g
1X!
0U!
0S!
17"
13"
1l
1*"
0Y!
0V!
1m
0W!
1R!
0h
1k
1Y!
1Z!
1W!
1n
0Z!
#160000
1#
0!
0g
1i
#180000
1!
1g
1S!
1o
0l
1)"
10"
0p
0m
0{
1T!
0R!
0n
1h
0k
1p
1q
1n
0q
#200000
0!
0g
#220000
1!
1g
1U!
0S!
0o
0)"
0*"
1/"
1{
1R!
0n
0j
#240000
0!
0g
#260000
1!
1g
1S!
1l
1."
1V!
1m
0T!
0R!
0h
0Y!
0W!
1n
1Z!
#280000
0!
0g
#300000
1!
1g
1[!
0X!
0U!
0S!
1o
0l
1-"
1\!
1Y!
0V!
0p
0m
0Z!
1W!
1R!
0n
1h
0\!
1p
1]!
1Z!
0W!
1q
1n
0]!
0q
#320000
0!
0g
#340000
1!
1g
1S!
1l
1m
1T!
0R!
0h
0p
0n
1q
#360000
0!
0g
#380000
1!
1g
1U!
0S!
1r
0o
0l
1s
1p
0m
1R!
1~!
0q
1n
1h
0s
1t
1q
0n
0t
#400000
0!
0g
#420000
1!
1g
1S!
1l
1!"
1X
1V!
1m
16
0T!
0R!
0h
1""
1Y
1;
1W!
1n
#440000
0!
0g
#460000
1!
1g
1X!
0U!
0S!
1o
0l
0Y!
0V!
0p
0m
0W!
1R!
0n
1h
1\!
1Y!
1s
1p
0Z!
1W!
0q
1n
0\!
0s
1]!
1Z!
1t
1q
0]!
0t
#480000
0!
0g
#500000
1!
1g
1S!
1l
1m
1T!
0R!
0h
0p
0n
1s
0q
1t
#520000
0!
0g
#540000
1!
1g
1U!
0S!
1u
0r
0o
0l
0v
0s
1p
0m
1R!
0t
0~!
1q
1n
1h
1v
1w
1t
0q
0n
0w
#560000
0!
0g
#580000
1!
1g
1S!
1l
0!"
0X
1V!
1m
06
0T!
0R!
0h
0""
0Y
0Y!
0;
0W!
1n
1\!
0Z!
1]!
#600000
0!
0g
#620000
1!
1g
1^!
0[!
0X!
0U!
0S!
1o
0l
0_!
0\!
1Y!
0V!
0p
0m
0]!
1Z!
1W!
1R!
0n
1h
1_!
1p
1`!
1]!
0Z!
0W!
1q
1n
0`!
0q
#640000
0!
0g
#660000
1!
1g
1S!
1l
1m
1T!
0R!
0h
0p
0n
1q
#680000
0!
0g
#700000
1!
1g
1U!
0S!
1r
0o
0l
1s
1p
0m
1R!
1~!
0q
1n
1h
0v
0s
0t
1q
0n
1v
1w
1t
0w
#720000
0!
0g
#740000
1!
1g
1S!
1l
1!"
1X
1V!
1m
16
0T!
0R!
0h
1""
1Y
1;
1W!
1n
#760000
0!
0g
#780000
1!
1g
1X!
0U!
0S!
1o
0l
0Y!
0V!
0p
0m
0W!
1R!
0n
1h
1Y!
1s
1p
1Z!
1W!
0q
1n
0v
0s
0Z!
0t
1q
1v
1w
1t
0w
#800000
0!
0g
#820000
1!
1g
1S!
1l
1m
1T!
0R!
0h
0p
0n
1s
0q
0v
0t
1w
#840000
0!
0g
#860000
1!
1g
1U!
0S!
1x
0u
0r
0o
0l
1v
0s
1p
0m
1R!
1y
0w
1t
0~!
1q
1n
1h
1w
0t
0q
0n
#880000
0!
0g
#900000
1!
1g
1S!
12"
1l
0!"
0X
1V!
0{
1m
06
0T!
0R!
1|
1z
0h
0""
0Y
1W
0Y!
1+!
1=
0;
0W!
1n
1.!
1Z!
10!
#920000
0!
0g
#940000
1!
1g
1[!
0X!
0U!
0S!
11!
1/!
11"
1o
0l
1\!
1Y!
0V!
1{!
1v!
1{
0p
0m
0Z!
1W!
1R!
12!
00!
0|
0n
1h
0W
0_!
0\!
0w!
1p
0+!
0=
0]!
1Z!
0W!
10!
1q
1n
1S
1_!
1(
1`!
1]!
0q
02!
0`!
#960000
0!
0g
#980000
1!
1g
1S!
1l
1m
1T!
0R!
0h
0p
0n
1q
#1000000
0!
0g
#1020000
1!
1g
1U!
0S!
1r
0o
0l
1s
1p
0m
1R!
1~!
0q
1n
1h
0s
1t
1q
0n
0t
#1040000
0!
0g
#1060000
1!
1g
1S!
1l
1!"
1X
1V!
1m
16
0T!
0R!
0h
1""
1Y
1;
1W!
1n
#1080000
0!
0g
#1100000
1!
1g
1X!
0U!
0S!
1o
0l
0Y!
0V!
0p
0m
0W!
1R!
0n
1h
1\!
1Y!
1s
1p
0Z!
1W!
0q
1n
0_!
0\!
0s
0]!
1Z!
1t
1q
1_!
1`!
1]!
0t
0`!
#1120000
0!
0g
#1140000
1!
1g
1S!
1l
1m
1T!
0R!
0h
0p
0n
1s
0q
1t
#1160000
0!
0g
#1180000
1!
1g
1U!
0S!
1u
0r
0o
0l
0v
0s
1p
0m
1R!
0t
0~!
1q
1n
1h
1v
0w
1t
0q
0n
1w
#1200000
0!
0g
#1220000
1!
1g
1S!
1l
0!"
0X
1V!
1m
06
0T!
0R!
0h
0""
0Y
0Y!
0;
0W!
1n
1\!
0Z!
0_!
0]!
1`!
#1240000
0!
0g
#1260000
1!
1g
1a!
0^!
0[!
0X!
0U!
0S!
1o
0l
1b!
1_!
0\!
1Y!
0V!
0p
0m
0`!
1]!
1Z!
1W!
1R!
0n
1h
0b!
1p
1c!
1`!
0]!
0Z!
0W!
1q
1n
0c!
0q
#1280000
0!
0g
#1300000
1!
1g
1S!
1l
1m
1T!
0R!
0h
0p
0n
1q
#1320000
0!
0g
#1340000
1!
1g
1U!
0S!
1r
0o
0l
1s
1p
0m
1R!
1~!
0q
1n
1h
0v
0s
0t
1q
0n
1v
0w
1t
1w
#1360000
0!
0g
#1380000
1!
1g
1S!
1l
1!"
1X
1V!
1m
16
0T!
0R!
0h
1""
1Y
1;
1W!
1n
#1400000
0!
0g
#1420000
1!
1g
1X!
0U!
0S!
1o
0l
0Y!
0V!
0p
0m
0W!
1R!
0n
1h
1Y!
1s
1p
1Z!
1W!
0q
1n
0v
0s
0Z!
0t
1q
1v
0w
1t
1w
#1440000
0!
0g
#1460000
1!
1g
1S!
1l
1m
1T!
0R!
0h
0p
0n
1s
0q
0v
0t
0w
#1480000
0!
0g
#1500000
1!
1g
1U!
0S!
0x
0u
0r
0o
0l
1v
0s
1p
0m
1R!
0y
1w
1t
0~!
1q
1n
1h
0w
0t
0q
0n
#1520000
0!
0g
#1540000
1!
1g
1S!
02"
1l
0!"
0X
1V!
1m
06
0T!
0R!
0z
0h
0""
0Y
0Y!
0;
0W!
1n
1Z!
#1560000
0!
0g
#1580000
1!
1g
1[!
0X!
0U!
0S!
01"
1o
0l
1\!
1Y!
0V!
0p
0m
0Z!
1W!
1R!
0n
1h
0\!
1p
1]!
1Z!
0W!
1q
1n
0]!
0q
#1600000
0!
0g
#1620000
1!
1g
1S!
1l
1m
1T!
0R!
0h
0p
0n
1q
#1640000
0!
0g
#1660000
1!
1g
1U!
0S!
1r
0o
0l
1s
1p
0m
1R!
1~!
0q
1n
1h
0s
1t
1q
0n
0t
#1680000
0!
0g
#1700000
1!
1g
1S!
1l
1!"
1X
1V!
1m
16
0T!
0R!
0h
1""
1Y
1;
1W!
1n
#1720000
0!
0g
#1740000
1!
1g
1X!
0U!
0S!
1o
0l
0Y!
0V!
0p
0m
0W!
1R!
0n
1h
1\!
1Y!
1s
1p
0Z!
1W!
0q
1n
0\!
0s
1]!
1Z!
1t
1q
0]!
0t
#1760000
0!
0g
#1780000
1!
1g
1S!
1l
1m
1T!
0R!
0h
0p
0n
1s
0q
1t
#1800000
0!
0g
#1820000
1!
1g
1U!
0S!
1u
0r
0o
0l
0v
0s
1p
0m
1R!
0t
0~!
1q
1n
1h
1v
1w
1t
0q
0n
0w
#1840000
0!
0g
#1860000
1!
1g
1S!
1l
0!"
0X
1V!
1m
06
0T!
0R!
0h
0""
0Y
0Y!
0;
0W!
1n
1\!
0Z!
1]!
#1880000
0!
0g
#1900000
1!
1g
1^!
0[!
0X!
0U!
0S!
1o
0l
0_!
0\!
1Y!
0V!
0p
0m
0]!
1Z!
1W!
1R!
0n
1h
1b!
1_!
1p
0`!
1]!
0Z!
0W!
1q
1n
0b!
1c!
1`!
0q
0c!
#1920000
0!
0g
#1940000
1!
1g
1S!
1l
1m
1T!
0R!
0h
0p
0n
1q
#1960000
0!
0g
#1980000
1!
1g
1U!
0S!
1r
0o
0l
1s
1p
0m
1R!
1~!
0q
1n
1h
0v
0s
0t
1q
0n
1v
1w
1t
0w
#2000000
0!
0g
#2020000
1!
1g
1S!
1l
1!"
1X
1V!
1m
16
0T!
0R!
0h
1""
1Y
1;
1W!
1n
#2040000
0!
0g
#2060000
1!
1g
1X!
0U!
0S!
1o
0l
0Y!
0V!
0p
0m
0W!
1R!
0n
1h
1Y!
1s
1p
1Z!
1W!
0q
1n
0v
0s
0Z!
0t
1q
1v
1w
1t
0w
#2080000
0!
0g
#2100000
1!
1g
1S!
1l
1m
1T!
0R!
0h
0p
0n
1s
0q
0v
0t
1w
#2120000
0!
0g
#2140000
1!
1g
1U!
0S!
1x
0u
0r
0o
0l
1v
0s
1p
0m
1R!
1y
0w
1t
0~!
1q
1n
1h
1w
0t
0q
0n
#2160000
0!
0g
#2180000
1!
1g
1S!
12"
1l
0!"
0X
1V!
0{
1m
06
0T!
0R!
1|
1z
0h
0""
0Y
1W
0Y!
1+!
1=
0;
0W!
00!
1n
1Z!
12!
#2200000
0!
0g
#2220000
1!
1g
1[!
0X!
0U!
0S!
13!
01!
11"
1o
0l
1\!
1Y!
0V!
0v!
0s!
0{!
0x!
1{
0p
0m
0Z!
1W!
1R!
14!
02!
0}!
0|
0n
1h
1[
1V
0W
0^
1O
0_!
0\!
1w!
0z!
1p
0+!
1,
09
0=
1%
1<
0]!
1Z!
0W!
1""
1}!
12!
1q
1n
0%"
04!
0[
0V
0_
1^
1Y
1T
0S
1b!
1_!
0(
1'
1;
19
05
0%
0<
0`!
1]!
0q
1%"
1_
0b!
15
1c!
1`!
0c!
#2240000
0!
0g
#2260000
1!
1g
1S!
1l
1m
1T!
0R!
0h
0p
0n
1q
#2280000
0!
0g
#2300000
1!
1g
1U!
0S!
1r
0o
0l
1s
1p
0m
1R!
1~!
0q
1n
1h
0s
1t
1q
0n
0t
#2320000
0!
0g
#2340000
1!
1g
1S!
1l
1!"
1X
1V!
1m
16
0T!
0R!
0h
1W!
1n
#2360000
0!
0g
#2380000
1!
1g
1X!
0U!
0S!
1o
0l
0Y!
0V!
0p
0m
0W!
1R!
0n
1h
1\!
1Y!
1s
1p
0Z!
1W!
0q
1n
0_!
0\!
0s
0]!
1Z!
1t
1q
1b!
1_!
0`!
1]!
0t
0b!
1c!
1`!
0c!
#2400000
0!
0g
#2420000
1!
1g
1S!
1l
1m
1T!
0R!
0h
0p
0n
1s
0q
1t
#2440000
0!
0g
#2460000
1!
1g
1U!
0S!
1u
0r
0o
0l
0v
0s
1p
0m
1R!
0t
0~!
1q
1n
1h
1v
0w
1t
0q
0n
1w
#2480000
0!
0g
#2500000
1!
1g
1S!
1l
0!"
0X
1V!
1m
06
0T!
0R!
0h
0Y!
0W!
1n
1\!
0Z!
0_!
0]!
1b!
0`!
1c!
#2520000
0!
0g
#2540000
1!
1g
1d!
0a!
0^!
0[!
0X!
0U!
0S!
1o
0l
0e!
0b!
1_!
0\!
1Y!
0V!
0p
0m
0c!
1`!
1]!
1Z!
1W!
1R!
0n
1h
1e!
1p
1f!
1c!
0`!
0]!
0Z!
0W!
1q
1n
0f!
0q
#2560000
0!
0g
#2580000
1!
1g
1S!
1l
1m
1T!
0R!
0h
0p
0n
1q
#2600000
0!
0g
#2620000
1!
1g
1U!
0S!
1r
0o
0l
1s
1p
0m
1R!
1~!
0q
1n
1h
0v
0s
0t
1q
0n
1v
0w
1t
1w
#2640000
0!
0g
#2660000
1!
1g
1S!
1l
1!"
1X
1V!
1m
16
0T!
0R!
0h
1W!
1n
#2680000
0!
0g
#2700000
1!
1g
1X!
0U!
0S!
1o
0l
0Y!
0V!
0p
0m
0W!
1R!
0n
1h
1Y!
1s
1p
1Z!
1W!
0q
1n
0v
0s
0Z!
0t
1q
1v
0w
1t
1w
#2720000
0!
0g
#2740000
1!
1g
1S!
1l
1m
1T!
0R!
0h
0p
0n
1s
0q
0v
0t
0w
#2760000
0!
0g
#2780000
1!
1g
1U!
0S!
0x
0u
0r
0o
0l
1v
0s
1p
0m
1R!
0y
1w
1t
0~!
1q
1n
1h
0w
0t
0q
0n
#2800000
0!
0g
#2820000
1!
1g
1S!
02"
1l
0!"
0X
1V!
1m
06
0T!
0R!
0z
0h
0Y!
0W!
1n
1Z!
#2840000
0!
0g
#2860000
1!
1g
1[!
0X!
0U!
0S!
01"
1o
0l
1\!
1Y!
0V!
0p
0m
0Z!
1W!
1R!
0n
1h
0\!
1p
1]!
1Z!
0W!
1q
1n
0]!
0q
#2880000
0!
0g
#2900000
1!
1g
1S!
1l
1m
1T!
0R!
0h
0p
0n
1q
#2920000
0!
0g
#2940000
1!
1g
1U!
0S!
1r
0o
0l
1s
1p
0m
1R!
1~!
0q
1n
1h
0s
1t
1q
0n
0t
#2960000
0!
0g
#2980000
1!
1g
1S!
1l
1!"
1X
1V!
1m
16
0T!
0R!
0h
1W!
1n
#3000000
0!
0g
#3020000
1!
1g
1X!
0U!
0S!
1o
0l
0Y!
0V!
0p
0m
0W!
1R!
0n
1h
1\!
1Y!
1s
1p
0Z!
1W!
0q
1n
0\!
0s
1]!
1Z!
1t
1q
0]!
0t
#3040000
0!
0g
#3060000
1!
1g
1S!
1l
1m
1T!
0R!
0h
0p
0n
1s
0q
1t
#3080000
0!
0g
#3100000
1!
1g
1U!
0S!
1u
0r
0o
0l
0v
0s
1p
0m
1R!
0t
0~!
1q
1n
1h
1v
1w
1t
0q
0n
0w
#3120000
0!
0g
#3140000
1!
1g
1S!
1l
0!"
0X
1V!
1m
06
0T!
0R!
0h
0Y!
0W!
1n
1\!
0Z!
1]!
#3160000
0!
0g
#3180000
1!
1g
1^!
0[!
0X!
0U!
0S!
1o
0l
0_!
0\!
1Y!
0V!
0p
0m
0]!
1Z!
1W!
1R!
0n
1h
1_!
1p
1`!
1]!
0Z!
0W!
1q
1n
0`!
0q
#3200000
0!
0g
#3220000
1!
1g
1S!
1l
1m
1T!
0R!
0h
0p
0n
1q
#3240000
0!
0g
#3260000
1!
1g
1U!
0S!
1r
0o
0l
1s
1p
0m
1R!
1~!
0q
1n
1h
0v
0s
0t
1q
0n
1v
1w
1t
0w
#3280000
0!
0g
#3300000
1!
1g
1S!
1l
1!"
1X
1V!
1m
16
0T!
0R!
0h
1W!
1n
#3320000
0!
0g
#3340000
1!
1g
1X!
0U!
0S!
1o
0l
0Y!
0V!
0p
0m
0W!
1R!
0n
1h
1Y!
1s
1p
1Z!
1W!
0q
1n
0v
0s
0Z!
0t
1q
1v
1w
1t
0w
#3360000
0!
0g
#3380000
1!
1g
1S!
1l
1m
1T!
0R!
0h
0p
0n
1s
0q
0v
0t
1w
#3400000
0!
0g
#3420000
1!
1g
1U!
0S!
1x
0u
0r
0o
0l
1v
0s
1p
0m
1R!
1y
0w
1t
0~!
1q
1n
1h
1w
0t
0q
0n
#3440000
0!
0g
#3460000
1!
1g
1S!
12"
1l
0!"
0X
1V!
0{
1m
06
0T!
0R!
1|
1z
0h
1W
0Y!
1+!
1=
0W!
02!
1n
14!
1Z!
#3480000
0!
0g
#3500000
1!
1g
1[!
0X!
0U!
0S!
15!
03!
11"
1o
0l
1\!
1Y!
0V!
1{!
1v!
1{
0p
0m
0Z!
1W!
1R!
16!
04!
0|
0n
1h
0W
0_!
0\!
0w!
1p
0+!
0=
0]!
1Z!
0W!
1q
1n
06!
14!
1S
1_!
1(
1`!
1]!
0q
0`!
#3520000
0!
0g
#3540000
1!
1g
1S!
1l
1m
1T!
0R!
0h
0p
0n
1q
#3560000
0!
0g
#3580000
1!
1g
1U!
0S!
1r
0o
0l
1s
1p
0m
1R!
1~!
0q
1n
1h
0s
1t
1q
0n
0t
#3600000
0!
0g
#3620000
1!
1g
1S!
1l
1!"
1X
1V!
1m
16
0T!
0R!
0h
1W!
1n
#3640000
0!
0g
#3660000
1!
1g
1X!
0U!
0S!
1o
0l
0Y!
0V!
0p
0m
0W!
1R!
0n
1h
1\!
1Y!
1s
1p
0Z!
1W!
0q
1n
0_!
0\!
0s
0]!
1Z!
1t
1q
1_!
1`!
1]!
0t
0`!
#3680000
0!
0g
#3700000
1!
1g
1S!
1l
1m
1T!
0R!
0h
0p
0n
1s
0q
1t
#3720000
0!
0g
#3740000
1!
1g
1U!
0S!
1u
0r
0o
0l
0v
0s
1p
0m
1R!
0t
0~!
1q
1n
1h
1v
0w
1t
0q
0n
1w
#3760000
0!
0g
